docs/gtkwave_output.vcd
$timescale 1us $end
$scope module logic $end
$var wire 1 ! led.0 $end
$var wire 1 " led.1 $end
$var wire 1 # led.2 $end
$var wire 1 $ led.3 $end
$var wire 1 % led.4 $end
$var wire 1 & led.5 $end
$var wire 1 ' led.6 $end
$var wire 1 ( led.7 $end
$upscope $end
$enddefinitions $end
$dumpvars
0!
0"
0#
0$
0%
0&
0'
0(
$end
#55ld
1!
#15686ld
0!
1"
#31311ld
0"
1#
#46936ld
0#
1$
#62561ld
0$
1%
#78186ld
0%
1&
#93811ld
0&
1'
#109436ld
0'
1(
#125061ld
1!
0(
#140686ld
0!
1"
#156311ld
0"
1#
#171936ld
0#
1$
#187561ld
0$
1%
#203186ld
0%
1&
#218811ld
0&
1'
#234436ld
0'
1(
#250061ld
1!
0(
#265686ld
0!
1"
#281311ld
0"
1#
#296936ld
0#
1$
#312561ld
0$
1%
#328186ld
0%
1&
#343811ld
0&
1'
#359436ld
0'
1(
#375061ld
1!
0(
#390686ld
0!
1"
#406311ld
0"
1#
#421936ld
0#
1$
#437561ld
0$
1%
#453186ld
0%
1&
#468811ld
0&
1'
#484436ld
0'
1(
#500061ld
1!
0(
#515686ld
0!
1"
